<svg xmlns="http://www.w3.org/2000/svg" viewBox="0 0 279 279">
  <defs>
    <style>
      .cls-1 {
        fill: none;
        stroke: #fff;
        stroke-miterlimit: 10;
        stroke-width: 3px;
      }

      .cls-2 {
        fill: #fd690d;
      }
    </style>
  </defs>
  <g id="Group_272" data-name="Group 272" transform="translate(18 20)">
    <rect id="Rectangle_564" data-name="Rectangle 564" class="cls-1" width="276" height="276" transform="translate(-16.5 -18.5)"/>
    <g id="Group_268" data-name="Group 268" transform="translate(11.919 52.629)">
      <g id="Group_266" data-name="Group 266" transform="translate(0 84.602)">
        <g id="Group_265" data-name="Group 265">
          <path id="Path_299" data-name="Path 299" class="cls-2" d="M39.3,258.341H50.252V239.275h18.5V228.344h-18.5v-8.075h18.5V209.338H39.3Zm69.409-22.84a17.97,17.97,0,0,0,.569-15.164,18.1,18.1,0,0,0-9.634-9.6,17.718,17.718,0,0,0-7.022-1.4H76.235v49H87.187V245.275h5.622l7.5,13.134h12.584l-9.5-16.668A18.148,18.148,0,0,0,108.709,235.5Zm-9.537-5.488a7.183,7.183,0,0,1-3.8,3.767,6.888,6.888,0,0,1-2.77.564h-5.4V220.269h5.4a6.888,6.888,0,0,1,2.77.564,7.291,7.291,0,0,1,3.8,3.729,6.542,6.542,0,0,1,.569,2.707A6.923,6.923,0,0,1,99.172,230.013Zm32.765-20.743-11.551,49.071H131.6l1.265-5.466h14.418l1.332,5.466h11.214L148.211,209.27H131.937Zm3.533,32.667,4.6-19.668,4.671,19.668Zm56.1-5.4-7.478-27.2-16.761-.068v49.071h10.952V229.2l7.942,29.14h10.682l7.875-28.539v28.539h10.959V209.27l-16.626.068Zm66.893-16.224V209.39H235.8v-.068h-11.91v49.011h34.57V247.41H235.8v-8.127h22.66V228.359H235.8V220.3h22.66Z" transform="translate(-39.3 -209.27)"/>
        </g>
      </g>
      <g id="Group_267" data-name="Group 267" transform="translate(0 0)">
        <path id="Path_300" data-name="Path 300" class="cls-2" d="M152.506,104.942a25.189,25.189,0,0,0-7.789,5.225,24.46,24.46,0,0,0-5.255,7.751,24.576,24.576,0,0,0,0,19.1,24.46,24.46,0,0,0,5.255,7.751A25.1,25.1,0,0,0,152.506,150a24.409,24.409,0,0,0,19.036,0,25.189,25.189,0,0,0,7.789-5.225,24.46,24.46,0,0,0,5.255-7.751,24.576,24.576,0,0,0,0-19.1,24.46,24.46,0,0,0-5.255-7.751,25.1,25.1,0,0,0-7.789-5.225,24.409,24.409,0,0,0-19.036,0Zm4.225,35.012a13.255,13.255,0,0,1-4.323-2.917,13.88,13.88,0,0,1-2.895-4.338,13.287,13.287,0,0,1-1.068-5.27,12.9,12.9,0,0,1,1.068-5.233,14.1,14.1,0,0,1,2.895-4.308,13.579,13.579,0,0,1,19.232,0,13.919,13.919,0,0,1,2.895,4.308,13.027,13.027,0,0,1,1.068,5.233,13.184,13.184,0,0,1-1.068,5.27,13.88,13.88,0,0,1-2.895,4.338,13.655,13.655,0,0,1-14.909,2.917Z" transform="translate(-64.088 -98.296)"/>
        <path id="Path_301" data-name="Path 301" class="cls-2" d="M255.44,151.931V103.01H244.523v27.953L228.946,103.01H217.3v48.921h10.916V123.978l15.548,27.953H255.44Z" transform="translate(-84.173 -98.296)"/>
        <path id="Path_302" data-name="Path 302" class="cls-2" d="M320.631,113.979v-10.9H297.919v-.068H285.98v48.921h34.659v-10.9H297.926v-8.112h22.712v-10.9H297.926v-8.044h22.7v.008Z" transform="translate(-101.469 -98.296)"/>
        <path id="Path_303" data-name="Path 303" class="cls-2" d="M79.68,118.573v-9.766a34.07,34.07,0,0,0,7.811-.759c2.1-.5,4.812-1.286,6.157-2.331a10,10,0,0,0,3.037-3.909A15.414,15.414,0,0,0,98.04,96.74H39.3v56H95.438V118.58H79.68Z" transform="translate(-39.3 -96.74)"/>
      </g>
    </g>
  </g>
</svg>
